refV = 3932
0,  4.38,  5.06,  3899.69,  1.81 
1,  42.12,  42.25,  3900.69,  2.56 
2,  79.12,  79.75,  3899.75,  1.75 
3,  118.69,  117.00,  3901.94,  2.50 
4,  156.88,  157.88,  3901.00,  1.62 
5,  195.81,  197.75,  3901.88,  2.00 
6,  234.69,  235.00,  3902.25,  2.12 
7,  274.81,  274.50,  3901.00,  1.25 
8,  316.31,  314.00,  3901.81,  2.00 
9,  356.06,  353.88,  3903.94,  3.12 
10,  395.25,  394.50,  3901.94,  1.38 
11,  434.81,  437.12,  3902.81,  2.50 
12,  473.25,  474.88,  3843.31,  54.25 
13,  512.56,  506.62,  3604.94,  259.75 
14,  550.69,  530.69,  3124.25,  690.62 
15,  589.81,  551.38,  2477.06,  1265.12 
16,  628.56,  567.81,  1747.69,  1897.62 
17,  668.44,  585.12,  1001.00,  2531.19 
18,  708.56,  598.25,  504.75,  2971.38 
19,  749.06,  605.06,  350.94,  3109.88 
20,  788.50,  610.56,  250.56,  3202.62 
21,  827.69,  615.00,  198.50,  3254.50 
22,  866.75,  616.75,  175.94,  3275.62 
23,  904.19,  617.62,  162.62,  3289.12 
24,  940.81,  618.50,  153.69,  3302.75 
25,  977.94,  618.81,  148.00,  3310.81 
26,  1019.50,  619.44,  140.94,  3319.06 
27,  1061.06,  620.25,  134.44,  3325.50 
28,  1101.62,  620.62,  127.75,  3332.88 
29,  1142.62,  621.69,  124.19,  3340.19 
30,  1182.31,  622.81,  130.38,  3346.00 
31,  1222.19,  623.62,  126.69,  3351.81 
32,  1260.75,  624.56,  124.25,  3357.38 
33,  1296.56,  624.06,  120.88,  3362.12 
34,  1334.19,  625.25,  118.62,  3370.31 
35,  1372.62,  626.06,  118.56,  3373.81 
36,  1416.50,  626.06,  115.12,  3378.81 
37,  1455.75,  628.12,  114.00,  3383.31 
38,  1495.25,  627.62,  110.44,  3389.38 
39,  1535.50,  629.12,  107.06,  3393.56 
40,  1575.25,  628.38,  110.44,  3397.94 
41,  1615.00,  629.12,  108.94,  3402.44 
42,  1653.69,  629.25,  107.50,  3405.94 
43,  1689.88,  630.75,  106.12,  3410.94 
44,  1727.31,  634.12,  105.81,  3415.94 
45,  1765.75,  632.00,  106.00,  3420.00 
46,  1804.94,  630.88,  104.31,  3424.19 
47,  1844.50,  630.25,  103.94,  3428.38 
48,  1886.38,  634.12,  102.88,  3433.06 
49,  1928.25,  634.62,  102.38,  3437.12 
50,  1968.81,  634.25,  101.81,  3441.62 
51,  2008.25,  634.75,  101.56,  3445.44 
52,  2047.38,  634.62,  101.62,  3448.38 
53,  2084.12,  640.12,  100.62,  3453.38 
54,  2121.06,  642.06,  100.31,  3457.62 
55,  2160.00,  640.81,  99.56,  3460.94 
56,  2198.19,  639.06,  99.62,  3465.88 
57,  2239.44,  639.38,  98.19,  3469.25 
58,  2280.00,  640.00,  96.56,  3472.88 
59,  2321.81,  640.00,  96.69,  3477.94 
60,  2361.00,  639.88,  96.31,  3481.81 
61,  2399.25,  639.88,  98.25,  3485.06 
62,  2437.62,  640.88,  97.25,  3489.06 
63,  2474.31,  641.00,  96.56,  3494.31 
64,  2511.94,  641.88,  96.75,  3497.25 
65,  2552.62,  641.62,  95.94,  3500.38 
66,  2592.25,  642.62,  96.06,  3505.31 
67,  2631.62,  642.88,  94.19,  3509.56 
68,  2673.44,  642.50,  92.50,  3512.75 
69,  2714.19,  643.62,  91.44,  3517.12 
70,  2754.31,  644.00,  90.88,  3520.38 
71,  2791.00,  643.75,  95.00,  3524.12 
72,  2830.50,  645.38,  96.31,  3528.94 
73,  2868.00,  645.00,  96.88,  3533.31 
74,  2905.56,  646.25,  96.50,  3535.12 
75,  2947.44,  647.25,  95.44,  3539.44 
76,  2985.19,  647.25,  94.00,  3543.25 
77,  3025.12,  647.38,  92.94,  3547.44 
78,  3065.62,  647.62,  92.19,  3550.06 
79,  3106.31,  648.50,  92.56,  3554.56 
80,  3146.25,  648.38,  91.38,  3559.38 
81,  3185.88,  648.88,  91.44,  3562.75 
82,  3223.81,  648.25,  91.12,  3566.00 
83,  3261.94,  649.38,  91.12,  3571.88 
84,  3301.38,  650.00,  91.94,  3573.50 
85,  3338.44,  648.44,  90.69,  3578.06 
86,  3376.19,  648.88,  90.62,  3580.50 
87,  3417.81,  648.44,  89.94,  3586.06 
88,  3457.94,  648.31,  88.75,  3588.94 
89,  3497.31,  647.44,  88.44,  3592.75 
90,  3536.25,  652.00,  86.69,  3596.31 
91,  3576.31,  656.69,  85.88,  3600.38 
92,  3614.69,  653.56,  88.94,  3604.00 
93,  3654.94,  654.94,  89.88,  3608.12 
94,  3693.81,  654.00,  90.25,  3610.62 
95,  3734.56,  653.75,  90.38,  3615.44 
96,  3772.75,  654.62,  90.19,  3619.25 
97,  3811.81,  655.38,  90.38,  3621.94 
98,  3851.12,  654.94,  89.94,  3627.19 
99,  3876.56,  655.25,  89.25,  3629.00 
100,  3880.31,  653.44,  91.31,  3630.31 
