refV = 3938
0,  31.31,  3107.56,  3673.75,  3313.44 
1,  44.12,  3109.31,  3675.62,  3313.12 
2,  84.31,  3112.69,  3679.75,  3314.62 
3,  122.31,  3111.69,  3681.56,  3314.06 
4,  162.19,  3113.44,  3682.06,  3314.69 
5,  202.12,  3113.62,  3680.75,  3314.56 
6,  240.12,  3115.31,  3681.75,  3315.00 
7,  280.81,  3115.44,  3680.88,  3315.06 
8,  321.81,  3114.81,  3681.44,  3313.75 
9,  361.19,  3115.69,  3682.44,  3314.38 
10,  401.38,  3118.31,  3681.44,  3312.88 
11,  439.69,  3122.81,  3682.81,  3314.19 
12,  479.38,  3122.50,  3682.25,  3313.50 
13,  517.06,  3120.12,  3683.12,  3314.50 
14,  555.06,  3121.81,  3682.94,  3314.75 
15,  594.31,  3120.69,  3681.88,  3313.50 
16,  633.69,  3121.94,  3682.25,  3314.31 
17,  672.88,  3122.06,  3680.94,  3312.81 
18,  712.44,  3122.00,  3680.56,  3314.44 
19,  753.69,  3123.88,  3680.50,  3313.56 
20,  793.81,  3123.94,  3680.19,  3312.69 
21,  833.19,  3124.94,  3680.31,  3313.56 
22,  871.19,  3126.31,  3681.44,  3313.88 
23,  908.81,  3125.44,  3680.12,  3313.00 
24,  947.19,  3127.06,  3681.19,  3313.06 
25,  983.56,  3125.88,  3680.88,  3312.56 
26,  1024.19,  3127.06,  3679.75,  3312.44 
27,  1066.69,  3128.12,  3677.75,  3313.19 
28,  1107.56,  3128.75,  3674.69,  3313.25 
29,  1148.12,  3128.44,  3674.19,  3312.06 
30,  1187.44,  3129.38,  3682.75,  3312.12 
31,  1226.31,  3129.81,  3681.56,  3311.19 
32,  1266.06,  3130.50,  3680.81,  3310.62 
33,  1302.31,  3130.94,  3679.44,  3310.12 
34,  1340.69,  3132.62,  3681.56,  3311.12 
35,  1378.00,  3132.00,  3680.38,  3309.81 
36,  1422.00,  3133.50,  3681.25,  3311.19 
37,  1462.12,  3133.62,  3680.25,  3311.56 
38,  1500.62,  3133.69,  3678.19,  3310.38 
39,  1541.19,  3133.69,  3676.56,  3310.88 
40,  1581.44,  3134.88,  3679.62,  3309.69 
41,  1620.62,  3135.00,  3678.94,  3310.00 
42,  1658.88,  3134.31,  3677.56,  3307.94 
43,  1696.31,  3136.00,  3677.19,  3307.69 
44,  1733.06,  3140.19,  3679.19,  3308.38 
45,  1771.44,  3138.81,  3678.12,  3306.94 
46,  1810.56,  3138.31,  3679.12,  3307.12 
47,  1850.56,  3138.31,  3677.56,  3307.12 
48,  1892.44,  3141.94,  3677.62,  3307.81 
49,  1934.88,  3141.88,  3677.31,  3307.44 
50,  1975.44,  3142.25,  3675.06,  3305.44 
51,  2013.50,  3142.19,  3674.75,  3304.94 
52,  2053.88,  3143.56,  3674.75,  3305.31 
53,  2090.12,  3148.25,  3674.75,  3303.38 
54,  2128.25,  3150.69,  3673.88,  3304.00 
55,  2166.25,  3150.38,  3673.56,  3302.19 
56,  2204.06,  3148.75,  3673.44,  3301.50 
57,  2245.25,  3148.38,  3671.69,  3301.50 
58,  2287.12,  3150.38,  3671.25,  3299.81 
59,  2328.19,  3149.69,  3670.25,  3299.69 
60,  2367.69,  3150.38,  3669.31,  3298.62 
61,  2405.56,  3150.81,  3670.56,  3297.94 
62,  2444.25,  3151.81,  3668.19,  3297.19 
63,  2480.62,  3153.31,  3667.50,  3295.31 
64,  2518.81,  3154.00,  3666.38,  3294.44 
65,  2560.50,  3155.19,  3663.62,  3292.06 
66,  2598.75,  3155.69,  3661.94,  3290.81 
67,  2639.00,  3156.56,  3658.50,  3288.69 
68,  2680.50,  3157.94,  3655.75,  3286.56 
69,  2720.31,  3158.69,  3652.81,  3284.62 
70,  2760.12,  3160.06,  3648.94,  3281.62 
71,  2799.00,  3161.12,  3650.38,  3278.75 
72,  2837.50,  3162.69,  3648.06,  3275.38 
73,  2874.38,  3163.44,  3642.88,  3269.25 
74,  2913.69,  3167.06,  3634.50,  3262.06 
75,  2953.56,  3168.88,  3621.75,  3250.69 
76,  2993.19,  3172.69,  3600.25,  3230.94 
77,  3032.44,  3178.75,  3549.62,  3184.69 
78,  3072.19,  3193.50,  3348.88,  2994.94 
79,  3113.25,  3215.62,  2998.62,  2688.31 
80,  3151.44,  3236.56,  2633.88,  2367.19 
81,  3189.06,  3258.12,  2261.75,  2030.31 
82,  3228.00,  3281.00,  1889.19,  1683.12 
83,  3267.12,  3305.25,  1509.81,  1329.25 
84,  3303.62,  3329.56,  1133.75,  982.00 
85,  3343.19,  3356.19,  765.50,  651.12 
86,  3380.88,  3384.19,  422.62,  350.75 
87,  3420.44,  3414.69,  172.94,  129.12 
88,  3460.50,  3449.88,  44.31,  23.88 
89,  3500.44,  3489.25,  10.81,  3.38 
90,  3539.31,  3531.38,  9.50,  2.38 
91,  3577.62,  3574.12,  10.25,  2.75 
92,  3617.19,  3610.88,  10.38,  1.88 
93,  3656.19,  3648.06,  12.19,  2.75 
94,  3696.50,  3687.88,  13.19,  3.25 
95,  3736.19,  3726.31,  12.75,  2.50 
96,  3775.44,  3766.25,  13.25,  2.88 
97,  3815.50,  3805.12,  12.94,  3.00 
98,  3853.88,  3843.88,  13.06,  3.25 
99,  3893.00,  3883.50,  13.38,  4.00 
100,  3912.94,  3900.31,  13.88,  2.50 
