refV = 3933
0,  11.19,  11.88,  3905.50,  1.62 
1,  42.81,  42.88,  3900.44,  2.75 
2,  77.19,  81.19,  3901.38,  1.75 
3,  116.81,  119.12,  3902.25,  1.69 
4,  155.19,  158.50,  3903.50,  2.38 
5,  195.00,  196.56,  3901.19,  1.56 
6,  236.38,  237.12,  3901.31,  2.06 
7,  276.12,  275.69,  3901.38,  2.31 
8,  315.12,  315.44,  3904.38,  1.94 
9,  356.44,  356.06,  3903.19,  2.25 
10,  395.44,  395.69,  3903.06,  2.31 
11,  433.69,  434.75,  3903.06,  1.38 
12,  473.62,  476.25,  3903.62,  2.19 
13,  511.38,  516.19,  3904.44,  2.12 
14,  549.94,  554.06,  3902.69,  2.62 
15,  588.50,  592.88,  3904.06,  2.00 
16,  627.12,  630.38,  3904.44,  1.69 
17,  667.94,  670.62,  3903.00,  2.38 
18,  708.38,  710.00,  3903.62,  1.94 
19,  748.38,  749.75,  3903.31,  1.88 
20,  787.81,  788.12,  3902.88,  2.25 
21,  826.75,  826.75,  3904.81,  2.12 
22,  866.31,  866.56,  3903.31,  2.56 
23,  902.38,  904.75,  3903.06,  2.62 
24,  939.44,  943.56,  3904.38,  1.94 
25,  976.00,  981.50,  3903.69,  1.81 
26,  1019.12,  1022.56,  3904.31,  2.19 
27,  1061.56,  1062.69,  3904.44,  2.31 
28,  1103.50,  1101.56,  3901.19,  2.50 
29,  1144.06,  1141.44,  3899.62,  12.25 
30,  1182.62,  1180.38,  3899.81,  35.00 
31,  1221.31,  1218.88,  3905.31,  82.75 
32,  1259.38,  1258.00,  3906.38,  184.19 
33,  1296.25,  1296.56,  3900.88,  383.81 
34,  1334.19,  1336.19,  3880.44,  745.38 
35,  1372.50,  1375.50,  3848.62,  1335.44 
36,  1411.94,  1415.56,  3800.69,  2193.50 
37,  1456.19,  1454.56,  3742.81,  3253.69 
38,  1499.00,  1494.81,  3739.38,  3348.44 
39,  1539.62,  1535.62,  3735.75,  3358.69 
40,  1580.50,  1575.19,  3736.69,  3363.31 
41,  1618.62,  1613.38,  3740.00,  3365.62 
42,  1656.94,  1653.75,  3739.88,  3366.44 
43,  1694.62,  1694.19,  3741.81,  3368.19 
44,  1730.06,  1733.19,  3740.19,  3367.31 
45,  1769.56,  1771.75,  3741.62,  3368.00 
46,  1807.19,  1809.88,  3741.00,  3368.31 
47,  1849.50,  1845.69,  3741.31,  3367.62 
48,  1891.00,  1885.94,  3742.00,  3369.19 
49,  1932.94,  1929.19,  3741.56,  3368.81 
50,  1973.88,  1967.69,  3741.50,  3368.31 
51,  2012.56,  2007.56,  3741.75,  3368.38 
52,  2050.56,  2048.75,  3743.00,  3369.94 
53,  2089.44,  2092.94,  3742.12,  3368.75 
54,  2127.00,  2129.06,  3742.62,  3367.94 
55,  2163.62,  2166.06,  3743.00,  3368.94 
56,  2202.88,  2204.88,  3743.06,  3368.38 
57,  2244.94,  2243.38,  3743.94,  3369.69 
58,  2285.56,  2281.62,  3743.00,  3368.12 
59,  2325.25,  2321.12,  3743.06,  3368.56 
60,  2365.12,  2360.38,  3745.81,  3368.88 
61,  2401.81,  2398.69,  3744.88,  3368.00 
62,  2440.38,  2438.81,  3746.00,  3369.50 
63,  2480.62,  2477.69,  3745.81,  3369.25 
64,  2519.81,  2516.12,  3745.69,  3368.31 
65,  2557.44,  2555.94,  3745.25,  3369.00 
66,  2596.62,  2595.62,  3746.44,  3369.00 
67,  2637.50,  2634.56,  3744.50,  3368.31 
68,  2679.38,  2674.44,  3745.38,  3369.38 
69,  2721.06,  2714.31,  3746.12,  3369.69 
70,  2759.00,  2753.12,  3747.12,  3368.50 
71,  2796.31,  2791.38,  3748.94,  3369.56 
72,  2835.69,  2831.00,  3748.31,  3369.12 
73,  2873.50,  2869.25,  3749.88,  3369.06 
74,  2914.88,  2909.75,  3750.12,  3369.62 
75,  2953.56,  2948.75,  3749.69,  3368.50 
76,  2992.25,  2986.69,  3749.00,  3368.25 
77,  3032.69,  3027.31,  3748.81,  3368.94 
78,  3073.31,  3066.00,  3748.12,  3367.12 
79,  3114.25,  3106.25,  3748.19,  3368.44 
80,  3153.00,  3145.94,  3748.62,  3368.50 
81,  3191.31,  3184.06,  3749.00,  3369.12 
82,  3230.38,  3224.25,  3749.44,  3370.06 
83,  3268.19,  3261.94,  3749.50,  3368.94 
84,  3307.19,  3301.38,  3750.44,  3368.44 
85,  3344.56,  3338.81,  3750.81,  3369.00 
86,  3384.12,  3378.06,  3750.50,  3368.31 
87,  3425.06,  3416.25,  3749.25,  3368.12 
88,  3466.00,  3457.50,  3749.38,  3368.38 
89,  3506.31,  3498.62,  3749.88,  3368.69 
90,  3545.69,  3538.25,  3749.12,  3368.44 
91,  3583.81,  3576.94,  3747.94,  3368.50 
92,  3623.12,  3618.69,  3750.44,  3368.94 
93,  3662.06,  3658.44,  3751.75,  3369.12 
94,  3701.31,  3696.81,  3753.06,  3369.06 
95,  3741.75,  3735.19,  3752.69,  3367.62 
96,  3781.12,  3773.88,  3752.50,  3367.50 
97,  3820.62,  3814.69,  3754.12,  3369.62 
98,  3859.94,  3851.81,  3752.25,  3367.62 
99,  3899.06,  3891.69,  3753.88,  3368.38 
100,  3918.88,  3907.81,  3754.88,  3367.94 
